<?xml version="1.0" encoding="utf-8"?>
<!-- Generator: Adobe Illustrator 16.0.0, SVG Export Plug-In . SVG Version: 6.00 Build 0)  -->
<!DOCTYPE svg PUBLIC "-//W3C//DTD SVG 1.1//EN" "http://www.w3.org/Graphics/SVG/1.1/DTD/svg11.dtd">
<svg version="1.1" id="Layer_1" xmlns="http://www.w3.org/2000/svg" xmlns:xlink="http://www.w3.org/1999/xlink" x="0px" y="0px"
	 width="1200px" height="1200px" viewBox="0 0 1200 1200" enable-background="new 0 0 1200 1200" xml:space="preserve">
<g>
	<path fill="#E39B00" d="M73.928,600.03c0,13.414,10.731,24.146,24.146,24.146c13.414,0,24.145-10.731,24.145-24.146
		c0-260.718,210.233-473.391,469.976-477.537l-32.925,32.925c-9.512,9.512-9.512,24.633,0,34.145
		c4.634,4.634,10.975,7.073,17.072,7.073c6.097,0,12.438-2.439,17.072-7.073l74.143-74.143c9.512-9.512,9.512-24.633,0-34.145
		L593.414,7.134c-9.512-9.512-24.633-9.512-34.145,0s-9.512,24.633,0,34.145l33.169,33.169
		C305.867,78.106,73.928,312.484,73.928,600.03z"/>
	<path fill="#E39B00" d="M1101.927,575.886c-13.414,0-24.145,10.73-24.145,24.145c0,260.719-210.233,473.391-469.977,477.537
		l32.925-32.925c9.512-9.512,9.512-24.634,0-34.146s-24.633-9.512-34.145,0l-74.143,74.143c-4.634,4.634-7.072,10.731-7.072,17.072
		c0,6.342,2.438,12.438,7.072,17.073l74.143,74.143c4.634,4.633,10.976,7.072,17.072,7.072c6.098,0,12.438-2.439,17.072-7.072
		c9.512-9.512,9.512-24.634,0-34.146l-33.169-33.169c286.571-3.658,518.511-238.036,518.511-525.583
		C1126.069,586.616,1115.341,575.886,1101.927,575.886z"/>
	<path fill="#E39B00" d="M540.489,456.379c-38.29,15.854-68.289,45.852-84.142,84.143s-15.853,80.728,0,119.019
		c24.145,58.289,80.483,96.092,143.651,96.092c20.486,0,40.485-3.901,59.509-11.95c38.291-15.853,68.289-45.852,84.143-84.142
		c15.853-38.291,15.853-80.728,0-119.019c-24.146-58.29-80.484-96.093-143.651-96.093
		C579.512,444.429,559.513,448.575,540.489,456.379z M699.019,559.057c10.975,26.584,10.975,55.607,0,82.191
		c-10.976,26.584-31.462,47.07-58.046,58.046c-13.17,5.365-26.828,8.292-40.974,8.292c-43.656,0-82.435-26.096-99.02-66.338
		c-10.976-26.584-10.976-55.607,0-82.191c10.975-26.584,31.462-47.07,58.046-58.046c13.17-5.365,26.828-8.292,40.974-8.292
		C643.414,492.719,682.436,518.815,699.019,559.057z"/>
	<path fill="#E39B00" d="M648.776,278.339l-9.999,24.145c-25.608-3.414-51.705-3.414-77.313,0l-9.999-24.145
		c-8.293-19.999-27.804-32.925-49.51-32.925c-7.073,0-13.902,1.463-20.487,4.146L435.86,268.34
		c-13.17,5.366-23.413,15.853-29.022,29.023c-5.365,13.17-5.365,27.804,0,40.974l10,24.145
		c-20.487,15.853-39.023,34.145-54.632,54.632l-24.146-10c-6.585-2.683-13.414-4.146-20.486-4.146
		c-21.706,0-41.217,12.927-49.51,32.926L249.285,481.5c-5.366,13.17-5.366,27.804,0,40.974c5.365,13.17,15.853,23.413,29.022,29.022
		l24.146,10c-3.415,25.852-3.415,51.704,0,77.313l-24.146,10c-13.17,5.365-23.413,15.853-29.022,29.022
		c-5.366,13.17-5.366,27.804,0,40.974l18.779,45.607c8.292,19.999,27.804,32.926,49.51,32.926c7.072,0,13.901-1.464,20.486-4.146
		l24.146-10c15.853,20.487,34.145,39.022,54.632,54.632l-10,24.146c-11.219,27.315,1.707,58.533,29.022,69.752l45.607,18.779
		c6.585,2.684,13.414,4.146,20.487,4.146c21.706,0,41.217-12.926,49.51-32.925l9.999-24.146c25.608,3.415,51.705,3.415,77.313,0
		l9.999,24.146c8.293,19.999,27.804,32.925,49.51,32.925c7.073,0,13.902-1.463,20.487-4.146l45.607-18.779
		c13.17-5.365,23.413-15.853,29.022-29.022c5.366-13.17,5.366-27.804,0-40.974l-9.999-24.146
		c20.486-15.853,39.022-34.145,54.631-54.631l24.146,9.999c6.585,2.683,13.414,4.146,20.486,4.146l0,0
		c21.706,0,41.218-12.926,49.51-32.925l18.78-45.608c5.365-13.17,5.365-27.803,0-40.973c-5.366-13.17-15.854-23.414-29.023-29.023
		l-24.146-9.999c3.415-25.853,3.415-51.705,0-77.313l24.146-9.999c13.17-5.366,23.413-15.854,29.023-29.023
		c5.365-13.17,5.365-27.804,0-40.974l-18.78-45.607c-8.292-19.999-27.804-32.925-49.51-32.925c-7.072,0-13.901,1.463-20.486,4.146
		l-24.146,10c-15.853-20.486-34.145-39.022-54.631-54.631l9.999-24.145c5.366-13.17,5.366-27.804,0-40.974
		c-5.365-13.17-15.853-23.414-29.022-29.023l-45.607-18.78c-6.585-2.683-13.414-4.146-20.487-4.146
		C676.58,245.17,657.069,258.097,648.776,278.339z M676.093,338.58l17.315-41.949c0.976-2.439,3.171-3.17,4.878-3.17
		c0.732,0,1.22,0.244,1.951,0.487l45.607,18.78c1.708,0.731,2.439,1.951,2.683,2.683c0.488,0.976,0.732,2.439,0,3.902
		l-17.315,41.949c-4.391,10.731-0.731,22.925,8.78,29.267c27.559,18.536,50.973,41.706,69.265,69.265
		c6.341,9.512,18.779,13.414,29.267,9.023l41.949-17.316c0.731-0.243,1.219-0.487,1.951-0.487c1.707,0,3.902,0.731,4.877,3.171
		l18.78,45.607c0.976,2.683-0.244,5.609-2.683,6.828l-41.949,17.316c-10.731,4.391-16.585,15.609-14.39,27.072
		c6.585,32.438,6.341,65.362,0,98.044c-2.195,11.219,3.902,22.682,14.39,27.071l41.949,17.316c1.707,0.731,2.438,1.951,2.683,2.683
		c0.487,0.976,0.731,2.439,0,3.902l-18.78,45.607c-0.975,2.439-3.17,3.171-4.877,3.171c-0.732,0-1.22-0.244-1.951-0.488
		l-41.949-17.316c-10.731-4.39-22.926-0.731-29.267,8.78c-18.536,27.56-41.706,50.974-69.265,69.265
		c-9.512,6.342-13.414,18.78-9.024,29.268l17.316,41.948c0.731,1.708,0.487,3.171,0,3.902c-0.488,0.976-1.22,2.195-2.927,2.684
		l-45.607,18.779c-0.731,0.244-1.22,0.487-1.951,0.487c-1.707,0-3.902-0.731-4.878-3.17l-17.316-41.949
		c-3.902-9.268-12.683-14.878-22.194-14.878c-1.463,0-3.17,0.244-4.634,0.488c-32.193,6.341-65.606,6.341-98.043,0
		c-11.22-2.195-22.683,3.902-27.072,14.39l-17.316,41.949c-0.976,2.438-3.17,3.17-4.878,3.17c-0.731,0-1.219-0.243-1.951-0.487
		l-45.607-18.779c-2.683-0.976-3.902-4.146-2.683-6.829l17.316-41.949c4.39-10.731,0.731-22.926-8.78-29.267
		c-27.56-18.536-50.973-41.705-69.265-69.265c-6.341-9.512-18.779-13.414-29.267-9.024l-41.949,17.316
		c-0.731,0.244-1.22,0.487-1.951,0.487c-1.707,0-3.902-0.731-4.878-3.17l-18.779-45.607c-0.731-1.708-0.488-3.171,0-3.902
		c0.488-0.976,1.22-2.195,2.683-2.683l41.949-17.316c10.731-4.391,16.585-15.609,14.39-27.072c-6.585-32.438-6.341-65.362,0-98.044
		c2.195-11.219-3.902-22.682-14.39-27.071l-41.949-17.316c-1.707-0.731-2.438-1.951-2.683-2.683c-0.488-0.976-0.731-2.439,0-3.902
		l18.779-45.607c0.976-2.438,3.171-3.171,4.878-3.171c0.731,0,1.22,0.244,1.951,0.488l41.949,17.316
		c10.731,4.39,22.926,0.731,29.267-8.78c18.536-27.56,41.705-50.974,69.265-69.265c9.512-6.341,13.414-18.779,9.024-29.267
		l-17.316-41.949c-0.731-1.707-0.487-3.17,0-3.902c0.487-0.976,1.22-2.195,2.927-2.926l45.607-18.78
		c0.731-0.244,1.22-0.488,1.951-0.488c1.707,0,3.902,0.731,4.878,3.17l17.315,41.949c4.391,10.731,15.854,16.584,27.072,14.39
		c32.193-6.341,65.606-6.341,98.044,0C660.239,355.165,671.702,349.312,676.093,338.58z"/>
</g>
</svg>
